datasets • finRes
…
finRes is home to a number of packages that, although self-contained with consumption value on their own, host datasets that play important roles in the finRes suite, mostly in relation to data collection, storage and wrangling but also to analytics and asset pricing in particular. At the time of writing, the set of dataset packages in finRes includes: BBGsymbols, fewISOs, GICS, FFresearch and factors.

BBGsymbols

The BBGsymbols package plays a critical role in finRes where it provides both the pullit and the storethat packages with support for interacting with Bloomberg through the Rblpapi interface (Armstrong, Eddelbuettel, and Laing 2018).

library(BBGsymbols)

data(list = c("fields", "months", "rolls", "tickers_cftc", "tickers_futures"), package = "BBGsymbols")

fields

The fields dataset is the workhorse in BBGsymbols; it gathers Bloomberg datafields that have been carefully selected over time through experience. By curbing the search space the package saves the user long hours of browsing the depths of Bloomberg for the desired fields. It provides popular historical and contemporaneous data fields that are likely to provide the necessary information and beyond for any rigorous research or more applied work in finance and financial economics. Financial instruments covered at the time of writing include ‘equity’, referring to any equity like security, ‘fund’ encompassing any money managing entity and ‘futures’ covering the futures markets. The author welcomes pull requests that could help expanding the current coverage.

#> # A tibble: 961 x 10
#>    instrument book  type  subtype section subsection name  id    symbol
#>    <chr>      <chr> <chr> <chr>   <chr>   <chr>      <chr> <chr> <chr> 
#>  1 equity     key … adju… <NA>    <NA>    <NA>       mark… RR250 HISTO…
#>  2 equity     key … adju… <NA>    <NA>    <NA>       ente… RR472 ENTER…
#>  3 equity     key … adju… <NA>    <NA>    <NA>       adju… IS010 SALES…
#>  4 equity     key … adju… <NA>    <NA>    <NA>       adju… RR861 GROSS…
#>  5 equity     key … adju… <NA>    <NA>    <NA>       adju… RR009 EBITDA
#>  6 equity     key … adju… <NA>    <NA>    <NA>       adju… RR530 EARN_…
#>  7 equity     key … adju… <NA>    <NA>    <NA>       adju… IS147 IS_DI…
#>  8 equity     key … adju… <NA>    <NA>    <NA>       cash… CF015 CF_CA…
#>  9 equity     key … adju… <NA>    <NA>    <NA>       capi… RR014 CAPIT…
#> 10 equity     key … adju… <NA>    <NA>    <NA>       free… RR008 CF_FR…
#> # … with 951 more rows, and 1 more variable: description <chr>
…
tickers_CFTC

The ‘tickers_CFTC’ dataset gathers Bloomberg position data tickers for a number of futures series. These tickers allow direct retrieval from Bloomberg via pullit of corresponding position data as reported by the US Commodity Futures Trading Commission (CFTC) in a collection of weekly market reports including the ‘legacy’, ‘disaggregated’, ‘supplemental’ and ‘traders in financial futures’ (TFF) reports. See ?tickers_CFTC for details.

#> # A tibble: 22,219 x 10
#>    name  `asset class` `active contrac… MIC   format underlying unit 
#>    <chr> <chr>         <chr>            <chr> <chr>  <chr>      <chr>
#>  1 Cali… climate       <NA>             IFUS  disag… futures &… cont…
#>  2 Cali… climate       <NA>             IFUS  disag… futures &… cont…
#>  3 Cali… climate       <NA>             IFUS  disag… futures &… cont…
#>  4 Cali… climate       <NA>             IFUS  disag… futures &… cont…
#>  5 Cali… climate       <NA>             IFUS  disag… futures &… cont…
#>  6 Cali… climate       <NA>             IFUS  disag… futures &… cont…
#>  7 Cali… climate       <NA>             IFUS  disag… futures &… cont…
#>  8 Cali… climate       <NA>             IFUS  disag… futures &… cont…
#>  9 Cali… climate       <NA>             IFUS  disag… futures &… cont…
#> 10 Cali… climate       <NA>             IFUS  disag… futures &… cont…
#> # … with 22,209 more rows, and 3 more variables: participant <chr>,
#> #   position <chr>, ticker <chr>

tickers_futures

The ‘tickers_futures’ dataset gathers futures active contract Bloomberg tickers as well as a collection of qualitative information for several popular futures series including commodity, currency, financial and index futures with underlyings from various asset classes.

#> # A tibble: 229 x 15
#>    ticker name  `asset class` sector subsector currency MIC   `term structure…
#>    <chr>  <chr> <chr>         <chr>  <chr>     <chr>    <chr>            <int>
#>  1 BSDA … Carb… climate       <NA>   <NA>      USD      IFED                50
#>  2 V6A C… Butt… commodity     agric… dairy     USD      XCME                24
#>  3 CHEA … Chee… commodity     agric… dairy     USD      XCME                25
#>  4 DAA C… Milk… commodity     agric… dairy     USD      XCME                24
#>  5 KVA C… Milk… commodity     agric… dairy     USD      XCME                23
#>  6 LEA C… Milk… commodity     agric… dairy     USD      XCME                24
#>  7 WBSA … Whea… commodity     agric… financial USD      XCBT                12
#>  8 QKA C… Whea… commodity     agric… grains    GBP      IFLX                10
#>  9 RSA C… Cano… commodity     agric… grains    CAD      IFUS                11
#> 10 C A C… Corn… commodity     agric… grains    USD      XCBT                17
#> # … with 219 more rows, and 7 more variables: `contract size` <int>, `trading
#> #   unit` <chr>, `point value` <dbl>, `tick size` <dbl>, `tick value` <dbl>,
#> #   FIGI <chr>, description <chr>
…
library(fewISOs)

data(list = c("countries", "currencies", "exchanges"), package = "fewISOs")

countries

The countries dataset corresponds to the ISO 3166-1 sub-standard, part of the ISO 3166 standard published by the International Organization for Standardization (ISO) that defines codes for the names of countries, dependent territories, special areas of geographical interest, and their principal subdivisions (e.g., provinces or states). The sub-standard comes in three sets of country codes, all provided in the dataset:

- ISO 3166-1 alpha-2: two-letter country codes (most widely used).

- ISO 3166-1 alpha-3: three-letter country codes. Allows for a better visual association between the codes and the country names than the alpha-2 codes.

- ISO 3166-1 numeric: three-digit country codes. These are identical to those developed and maintained by the United Nations Statistics Division, with the advantage of script (writing system) independence, and hence useful for people or systems using non-Latin scripts.

#> # A tibble: 250 x 5
#>    name                `alpha 2` `alpha 3` numeric capital         
#>    <chr>               <chr>     <chr>     <chr>   <chr>           
#>  1 Afghanistan         AF        AFG       004     Kabul           
#>  2 Åland Islands       AX        ALA       248     Mariehamn       
#>  3 Albania             AL        ALB       008     Tirana          
#>  4 Algeria             DZ        DZA       012     Algiers         
#>  5 American Samoa      AS        ASM       016     Pago Pago       
#>  6 Andorra             AD        AND       020     Andorra la Vella
#>  7 Angola              AO        AGO       024     Luanda          
#>  8 Anguilla            AI        AIA       660     The Valley      
#>  9 Antarctica          AQ        ATA       010     <NA>            
#> 10 Antigua and Barbuda AG        ATG       028     St. John's      
#> # … with 240 more rows

currencies

The currencies dataset corresponds to the ISO 4217 standard that defines codes for worldwide currencies and comes as a three-letter alphabetic as well as an alternative three-digit numeric code, both provided in the dataset. The ISO 4217 three-letter alphabetic code standard is based on the ISO 3166-1 code standard for countries with the first two letters corresponding the ISO 3166-1 alpha-2 code for the country issuing the corresponding currency and the third corresponding to the first letter of the currency name when possible. The three-digit numeric code is the same as the ISO 3166-1 numeric code for the issuing country when possible.

#> # A tibble: 155 x 5
#>    name                          alphabetic numeric `minor unit` country
#>    <chr>                         <chr>      <chr>   <chr>        <chr>  
#>  1 UAE Dirham                    AED        784     2            AE     
#>  2 Afghani                       AFN        971     2            AF     
#>  3 Lek                           ALL        008     2            AL     
#>  4 Armenian Dram                 AMD        051     2            AM     
#>  5 Netherlands Antillean Guilder ANG        532     2            CW     
#>  6 Kwanza                        AOA        973     2            AO     
#>  7 Argentine Peso                ARS        032     2            AR     
#>  8 Australian Dollar             AUD        036     2            AU     
#>  9 Aruban Florin                 AWG        533     2            AW     
#> 10 Azerbaijan Manat              AZN        944     2            AZ     
#> # … with 145 more rows

exchanges

The exchanges dataset corresponds to the ISO 10383 standard that defines four alphanumeric character Market Identifier Codes (MIC). These are unique identification codes used to identify securities trading exchanges, trading platforms and regulated or non-regulated markets as sources of prices and related information in order to facilitate automated processing.

#> # A tibble: 1,669 x 5
#>    name                              MIC   country city       website           
#>    <chr>                             <chr> <chr>   <chr>      <chr>             
#>  1 zobex                             ZOBX  DE      Berlin     www.boerse-berlin…
#>  2 zurcher kantonalbank securities … ZKBX  CH      Zurich     www.zkb.ch        
#>  3 jse currency derivatives market   ZFXM  ZA      Johannesb… www.jse.co.za     
#>  4 zar x                             ZARX  ZA      Johannesb… www.zarx.co.za    
#>  5 zagreb stock exchange - apa       ZAPA  HR      Zagreb     www.zse.hr        
#>  6 jse interest rate derivatives ma… YLDX  ZA      Johannesb… www.yieldx.co.za  
#>  7 zimbabwe stock exchange           XZIM  ZW      Harare     www.zse.co.zw     
#>  8 zhengzhou commodity exchange      XZCE  CN      Zhengzhou  www.czce.com.cn   
#>  9 progress market                   XZAP  HR      Zagreb     http://progress.m…
#> 10 the zagreb stock exchange mtf     XZAM  HR      Zagreb     www.zse.hr        
#> # … with 1,659 more rows

GICS

GICS packages the Global Industry Classification Standard (GICS) dataset for consumption in R. Beyond its self-contained consumption value GICS belongs to finRes where, along with BBGsymbols and fewISOs, it helps with data wrangling and exploration.

library(GICS)

data(list = c("standards"), package = "GICS")

standards

The GICS is a standardized classification system for equities developed jointly by Morgan Stanley Capital International (MSCI) and Standard & Poor’s. The GICS methodology is used by the MSCI indexes, which include domestic and international stocks, as well as by a large portion of the professional investment management community. The GICS hierarchy begins with 11 sectors and is followed by 24 industry groups, 68 industries, and 157 sub-industries. Each stock that is classified will have a coding at all four of these levels with all these provided in the ‘standards’ dataset.

#> # A tibble: 1,669 x 5
#>    name                              MIC   country city       website           
#>    <chr>                             <chr> <chr>   <chr>      <chr>             
#>  1 zobex                             ZOBX  DE      Berlin     www.boerse-berlin…
#>  2 zurcher kantonalbank securities … ZKBX  CH      Zurich     www.zkb.ch        
#>  3 jse currency derivatives market   ZFXM  ZA      Johannesb… www.jse.co.za     
#>  4 zar x                             ZARX  ZA      Johannesb… www.zarx.co.za    
#>  5 zagreb stock exchange - apa       ZAPA  HR      Zagreb     www.zse.hr        
#>  6 jse interest rate derivatives ma… YLDX  ZA      Johannesb… www.yieldx.co.za  
#>  7 zimbabwe stock exchange           XZIM  ZW      Harare     www.zse.co.zw     
#>  8 zhengzhou commodity exchange      XZCE  CN      Zhengzhou  www.czce.com.cn   
#>  9 progress market                   XZAP  HR      Zagreb     http://progress.m…
#> 10 the zagreb stock exchange mtf     XZAM  HR      Zagreb     www.zse.hr        
#> # … with 1,659 more rows
…
FFresearch conveniently packages Fama/French asset pricing research data for consumption in R. The data is pulled directly from Kenneth French’s online data library. Size concerns limit the data history to the last twenty years; the full time series are available from the author upon request.

library(FFresearch)

data(list = c("factors", "portfolios_univariate", "portfolios_bivariate", "portfolios_trivariate",
              "portfolios_industries", "variables", "breakpoints"), package = "FFresearch")

portfolios

univariate

The ‘portfolios_univariate’ dataset provides various feature time series for Fama/French portfolios formed on single variable sorts. Sorting variables include size, book-to-market, operating profitability and investment.

#> # A tibble: 2,586,965 x 9
#>    region frequency `sort variable` dividend weights portfolio field period
#>    <fct>  <fct>     <fct>           <fct>    <fct>   <chr>     <fct> <chr> 
#>  1 US     day       market capital… Y        value   Dec 2     retu… 19880…
#>  2 US     day       market capital… Y        value   Dec 2     retu… 19880…
#>  3 US     day       market capital… Y        value   Dec 2     retu… 19880…
#>  4 US     day       market capital… Y        value   Dec 2     retu… 19880…
#>  5 US     day       market capital… Y        value   Dec 2     retu… 19880…
#>  6 US     day       market capital… Y        value   Dec 2     retu… 19880…
#>  7 US     day       market capital… Y        value   Dec 2     retu… 19880…
#>  8 US     day       market capital… Y        value   Dec 2     retu… 19880…
#>  9 US     day       market capital… Y        value   Dec 2     retu… 19880…
#> 10 US     day       market capital… Y        value   Dec 2     retu… 19880…
#> # … with 2,586,955 more rows, and 1 more variable: value <dbl>

bivariate

The ‘portfolios_bivariate’ dataset provides various feature time series for Fama/French portfolios formed on two variable sorts. Sorting variables include size, book-to-market, operating profitability and investment.

#> # A tibble: 25,350,690 x 10
#>    region frequency `sort variable … `sort variable … dividend weights portfolio
#>    <fct>  <fct>     <fct>            <fct>            <fct>    <fct>   <chr>    
#>  1 US     day       market capitali… book/market      Y        value   BIG HiBM 
#>  2 US     day       market capitali… book/market      Y        value   BIG HiBM 
#>  3 US     day       market capitali… book/market      Y        value   BIG HiBM 
#>  4 US     day       market capitali… book/market      Y        value   BIG HiBM 
#>  5 US     day       market capitali… book/market      Y        value   BIG HiBM 
#>  6 US     day       market capitali… book/market      Y        value   BIG HiBM 
#>  7 US     day       market capitali… book/market      Y        value   BIG HiBM 
#>  8 US     day       market capitali… book/market      Y        value   BIG HiBM 
#>  9 US     day       market capitali… book/market      Y        value   BIG HiBM 
#> 10 US     day       market capitali… book/market      Y        value   BIG HiBM 
#> # … with 25,350,680 more rows, and 3 more variables: field <fct>, period <chr>,
#> #   value <dbl>

trivariate

The ‘portfolios_trivariate’ dataset provides various feature time series for Fama/French portfolios formed on three variable sorts. Sorting variables include size, book-to-market, operating profitability and investment.

#> # A tibble: 2,580,480 x 11
#>    region frequency `sort variable … `sort variable … `sort variable … dividend
#>    <fct>  <fct>     <fct>            <fct>            <fct>            <fct>   
#>  1 US     month     market capitali… book/market      operating profi… Y       
#>  2 US     month     market capitali… book/market      operating profi… Y       
#>  3 US     month     market capitali… book/market      operating profi… Y       
#>  4 US     month     market capitali… book/market      operating profi… Y       
#>  5 US     month     market capitali… book/market      operating profi… Y       
#>  6 US     month     market capitali… book/market      operating profi… Y       
#>  7 US     month     market capitali… book/market      operating profi… Y       
#>  8 US     month     market capitali… book/market      operating profi… Y       
#>  9 US     month     market capitali… book/market      operating profi… Y       
#> 10 US     month     market capitali… book/market      operating profi… Y       
#> # … with 2,580,470 more rows, and 5 more variables: weights <fct>,
#> #   portfolio <chr>, field <fct>, period <chr>, value <dbl>

industries

The ‘portfolios_industries’ dataset provides various feature time series for Fama/French industry portfolios (Fama and French 1997).

#> # A tibble: 3,516,216 x 8
#>    region frequency dividend weights portfolio field  period value
#>    <fct>  <fct>     <fct>    <fct>   <chr>     <fct>  <chr>  <dbl>
#>  1 US     month     Y        value   Aero      return 199801  1.31
#>  2 US     month     Y        value   Aero      return 199801  1.31
#>  3 US     month     Y        value   Aero      return 199801  1.31
#>  4 US     month     Y        value   Aero      return 199801  1.31
#>  5 US     month     Y        value   Aero      return 199801  1.31
#>  6 US     month     Y        value   Aero      return 199801  1.31
#>  7 US     month     Y        value   Aero      return 199801  1.31
#>  8 US     month     Y        value   Aero      return 199801  1.31
#>  9 US     month     Y        value   Aero      return 199801  1.31
#> 10 US     month     Y        value   Aero      return 199801  1.31
#> # … with 3,516,206 more rows

factors

The ‘factors’ dataset provides the return (factors) and level (risk free rate) time series for the classic Fama/French asset pricing factors as used in their three (Fama and French 1992, 1993, 1995) and most recently five-factor (Fama and French 2015, 2016, 2017) asset pricing models extremely popular to the asset pricing enthousiasts.

#> # A tibble: 399,132 x 5
#>    region frequency factor period value
#>    <fct>  <fct>     <chr>  <chr>  <dbl>
#>  1 US     month     CMA    198801  2.09
#>  2 US     month     CMA    198802 -0.11
#>  3 US     month     CMA    198803  1.91
#>  4 US     month     CMA    198804  1.9 
#>  5 US     month     CMA    198805  0.38
#>  6 US     month     CMA    198806 -3.25
#>  7 US     month     CMA    198807  1.45
#>  8 US     month     CMA    198808  1.74
#>  9 US     month     CMA    198809 -0.48
#> 10 US     month     CMA    198810  1.04
#> # … with 399,122 more rows
…
